<svg width="35" height="35" viewBox="0 0 35 35" fill="none" xmlns="http://www.w3.org/2000/svg">
<path d="M17.7013 0C27.2527 0 35 7.66575 35 17.0994C35 26.547 27.2247 34.2127 17.6594 34.1851C8.10806 34.1713 0.374706 26.5055 0.388691 17.0718C0.402675 7.65193 8.164 0 17.7013 0ZM7.03127 17.0856C7.03127 17.0856 7.01729 17.0856 7.0033 17.0856C7.0033 18.3702 7.0033 19.6547 7.0033 20.953C7.0033 21.4365 7.03127 21.9337 7.10119 22.4171C7.42284 24.5166 8.45768 26.1188 10.4994 26.9751C11.4503 27.3757 12.4432 27.5414 13.4641 27.5414C16.1631 27.5414 18.862 27.5414 21.561 27.5414C22.1484 27.5414 22.7357 27.5 23.3091 27.4033C25.4767 27.0442 27.0849 25.953 27.896 23.8674C28.2316 22.9972 28.3714 22.0856 28.3714 21.1602C28.3714 18.5221 28.3714 15.8978 28.3714 13.2597C28.3714 12.7624 28.3435 12.2514 28.2735 11.768C27.9379 9.58564 26.8331 7.9558 24.6935 7.12707C23.8265 6.79558 22.9175 6.64365 21.9806 6.64365C19.1138 6.64365 16.261 6.62983 13.3942 6.64365C12.3314 6.64365 11.2825 6.83702 10.3036 7.29282C8.13603 8.30111 7.1851 10.0967 7.04526 12.3481C6.94737 13.9227 7.03127 15.5111 7.03127 17.0994V17.0856Z" fill="#F2F2F2"/>
<path d="M17.6874 8.61858C19.1138 8.61858 20.5542 8.61858 21.9806 8.61858C22.4421 8.61858 22.9035 8.68765 23.351 8.78433C25.0571 9.18488 26.1339 10.4004 26.3437 12.1269C26.3856 12.5136 26.4136 12.9004 26.4136 13.2871C26.4136 15.8976 26.4416 18.5081 26.4136 21.1186C26.4136 21.7401 26.3017 22.4031 26.106 22.997C25.5745 24.5578 24.3859 25.4004 22.7637 25.4832C20.7499 25.5937 18.7362 25.5799 16.7085 25.5937C15.4079 25.5937 14.0934 25.6075 12.8068 25.497C10.4574 25.2899 9.059 23.8534 9.01705 21.5053C8.94712 18.5495 8.97509 15.6075 9.01705 12.6517C9.01705 12.044 9.21283 11.4086 9.45057 10.8423C10.0379 9.47494 11.1986 8.79814 12.653 8.68765C14.0514 8.59096 15.4638 8.60477 16.8763 8.57715C17.156 8.57715 17.4356 8.57715 17.7013 8.57715C17.7013 8.57715 17.7013 8.60477 17.7013 8.61858H17.6874ZM23.3231 17.1269C23.3231 14.0329 20.8338 11.5468 17.7293 11.5329C14.5828 11.5329 12.0796 13.9915 12.0656 17.0854C12.0656 20.1517 14.5549 22.6241 17.6874 22.6379C20.7779 22.6379 23.3091 20.1655 23.3091 17.1131L23.3231 17.1269ZM23.351 12.6655C23.9663 12.6655 24.4698 12.1821 24.4838 11.5744C24.4838 10.9667 23.9943 10.4694 23.379 10.4556C22.7497 10.4556 22.2323 10.939 22.2323 11.5606C22.2323 12.1683 22.7217 12.6517 23.351 12.6655Z" fill="#F2F2F2"/>
<path d="M21.3233 17.0856C21.3233 19.0608 19.7151 20.6768 17.7013 20.6768C15.7016 20.6768 14.0654 19.0884 14.0654 17.0995C14.0654 15.1243 15.6736 13.5083 17.6874 13.5083C19.7011 13.5083 21.3233 15.0829 21.3233 17.0856Z" fill="#F2F2F2"/>
</svg>
