<svg width="40" height="40" viewBox="0 0 40 40" fill="none" xmlns="http://www.w3.org/2000/svg">
<circle cx="20" cy="20" r="15" fill="white" fill-opacity="0.8"/>
<path d="M26.5445 19.1056L16.7367 14.2017C15.9388 13.8027 15 14.3829 15 15.275V24.725C15 25.6171 15.9388 26.1973 16.7367 25.7983L26.5445 20.8944C27.2815 20.5259 27.2815 19.4741 26.5445 19.1056Z" fill="#E8470B"/>
</svg>
